[
  {
    "url": "/DidYouKnow/DidYouKnow13.png",
    "alt": "Did You Know? The Franck-Hertz experiment directly verified the existence of discrete energy levels in atoms. Reference: NCERT Class 12 Physics Part 2 Pg. 428"
  },
  {
    "url": "/DidYouKnow/DidYouKnow5.png",
    "alt": "Did You Know? Nuclei are believed to have atom-like shell structure too. Reference: NCERT Class 12 Physics Part 2 Pg. 461 6th point"
  }
]
